{
  "project_info": {
    "project_number": "1005798886058",
    "project_id": "final-code-7cf49",
    "storage_bucket": "final-code-7cf49.appspot.com"
  },
  "client": [
    {
      "client_info": {
        "mobilesdk_app_id": "1:1005798886058:android:dcc9abe2eb518e05645ed3",
        "android_client_info": {
          "package_name": "com.bitoex.final_code"
        }
      },
      "oauth_client": [
        {
          "client_id": "1005798886058-8ipfmdoponcek0lh5k0vbnjaec88l5v9.apps.googleusercontent.com",
          "client_type": 3
        }
      ],
      "api_key": [
        {
          "current_key": "AIzaSyAqTabR2PEbOKGxVO0EKktZoO8ix8O_bJY"
        }
      ],
      "services": {
        "appinvite_service": {
          "other_platform_oauth_client": [
            {
              "client_id": "1005798886058-8ipfmdoponcek0lh5k0vbnjaec88l5v9.apps.googleusercontent.com",
              "client_type": 3
            },
            {
              "client_id": "1005798886058-in2n0ur42nj4qkvo6rvuc5vervnq9h2h.apps.googleusercontent.com",
              "client_type": 2,
              "ios_info": {
                "bundle_id": "com.example.finalCode"
              }
            }
          ]
        }
      }
    }
  ],
  "configuration_version": "1"
}